{
	"info": {
		"_postman_id": "ab10574e-10d0-46c6-bf64-55b5ac0762fb",
		"name": "berry",
		"schema": "https://schema.getpostman.com/json/collection/v2.1.0/collection.json"
	},
	"item": [
		{
			"name": "contrato",
			"event": [
				{
					"listen": "prerequest",
					"script": {
						"exec": [
							"pm.environment.set(\"NomePokemon\", \"pecha\");\r",
							""
						],
						"type": "text/javascript"
					}
				},
				{
					"listen": "test",
					"script": {
						"exec": [
							"var response_body = pm.response.json();\r",
							"\r",
							"pm.test(\"Teste de Contrato\", function () {\r",
							"    pm.response.to.be.ok;\r",
							"    pm.response.to.be.json;\r",
							"\r",
							"});"
						],
						"type": "text/javascript"
					}
				}
			],
			"request": {
				"method": "GET",
				"header": [],
				"url": {
					"raw": "https://pokeapi.co/api/v2/berry/{{NomePokemon}}",
					"protocol": "https",
					"host": [
						"pokeapi",
						"co"
					],
					"path": [
						"api",
						"v2",
						"berry",
						"{{NomePokemon}}"
					]
				}
			},
			"response": []
		},
		{
			"name": "max_min",
			"event": [
				{
					"listen": "prerequest",
					"script": {
						"exec": [
							"pm.environment.set(\"NomePokemon\", \"pecha\");\r",
							""
						],
						"type": "text/javascript"
					}
				},
				{
					"listen": "test",
					"script": {
						"exec": [
							"if(responseBody) {\r",
							"var infoBerry = JSON.parse(responseBody);\r",
							"\r",
							"    tests[\"natural_gift_power\"] = \"natural_gift_power\" in infoBerry;\r",
							"    tests[\"size\"] = \"size\" in infoBerry;\r",
							"    tests[\"smoothness\"] = \"smoothness\" in infoBerry;\r",
							"    tests[\"soil_dryness\"] = \"soil_dryness\" in infoBerry;\r",
							"    tests[\"Teste01\"] = Math.max(infoBerry.size, infoBerry.natural_gift_power, infoBerry.smoothness, infoBerry.soil_dryness);\r",
							"    tests[\"Teste02\"] = Math.min(infoBerry.size, infoBerry.natural_gift_power, infoBerry.smoothness, infoBerry.soil_dryness);\r",
							"}"
						],
						"type": "text/javascript"
					}
				}
			],
			"request": {
				"method": "GET",
				"header": [],
				"url": {
					"raw": "https://pokeapi.co/api/v2/berry/{{NomePokemon}}",
					"protocol": "https",
					"host": [
						"pokeapi",
						"co"
					],
					"path": [
						"api",
						"v2",
						"berry",
						"{{NomePokemon}}"
					]
				}
			},
			"response": []
		}
	]
}